info face="Arial" size=36 bold=0 italic=0 charset="" unicode=0 stretchH=100 smooth=1 aa=1 padding=0,0,0,0 spacing=0,0
common lineHeight=43 base=34 scaleW=512 scaleH=1024 pages=1 packed=0
page id=0 file="font_arial_36pt.png"
chars count=189
char id=32   x=0     y=0     width=0     height=0     xoffset=0     yoffset=34    xadvance=10     page=0  chnl=0 
char id=166   x=0     y=0     width=5     height=36     xoffset=3     yoffset=7    xadvance=9     page=0  chnl=0 
char id=124   x=5     y=0     width=5     height=36     xoffset=3     yoffset=7    xadvance=9     page=0  chnl=0 
char id=64   x=10     y=0     width=34     height=36     xoffset=2     yoffset=7    xadvance=37     page=0  chnl=0 
char id=254   x=44     y=0     width=18     height=35     xoffset=3     yoffset=7    xadvance=20     page=0  chnl=0 
char id=253   x=62     y=0     width=19     height=35     xoffset=0     yoffset=7    xadvance=17     page=0  chnl=0 
char id=221   x=81     y=0     width=24     height=35     xoffset=0     yoffset=0    xadvance=23     page=0  chnl=0 
char id=219   x=105     y=0     width=22     height=35     xoffset=3     yoffset=0    xadvance=26     page=0  chnl=0 
char id=218   x=127     y=0     width=22     height=35     xoffset=3     yoffset=0    xadvance=26     page=0  chnl=0 
char id=217   x=149     y=0     width=22     height=35     xoffset=3     yoffset=0    xadvance=26     page=0  chnl=0 
char id=213   x=171     y=0     width=26     height=35     xoffset=2     yoffset=0    xadvance=28     page=0  chnl=0 
char id=212   x=197     y=0     width=26     height=35     xoffset=2     yoffset=0    xadvance=28     page=0  chnl=0 
char id=211   x=223     y=0     width=26     height=35     xoffset=2     yoffset=0    xadvance=28     page=0  chnl=0 
char id=210   x=249     y=0     width=26     height=35     xoffset=2     yoffset=0    xadvance=28     page=0  chnl=0 
char id=209   x=275     y=0     width=22     height=35     xoffset=3     yoffset=0    xadvance=26     page=0  chnl=0 
char id=206   x=297     y=0     width=14     height=35     xoffset=-1     yoffset=0    xadvance=9     page=0  chnl=0 
char id=205   x=311     y=0     width=7     height=35     xoffset=2     yoffset=0    xadvance=9     page=0  chnl=0 
char id=204   x=318     y=0     width=7     height=35     xoffset=1     yoffset=0    xadvance=9     page=0  chnl=0 
char id=202   x=325     y=0     width=21     height=35     xoffset=3     yoffset=0    xadvance=24     page=0  chnl=0 
char id=201   x=346     y=0     width=21     height=35     xoffset=3     yoffset=0    xadvance=24     page=0  chnl=0 
char id=200   x=367     y=0     width=21     height=35     xoffset=3     yoffset=0    xadvance=24     page=0  chnl=0 
char id=199   x=388     y=0     width=23     height=35     xoffset=2     yoffset=7    xadvance=26     page=0  chnl=0 
char id=195   x=411     y=0     width=27     height=35     xoffset=-1     yoffset=0    xadvance=23     page=0  chnl=0 
char id=194   x=438     y=0     width=27     height=35     xoffset=-1     yoffset=0    xadvance=23     page=0  chnl=0 
char id=193   x=465     y=0     width=27     height=35     xoffset=-1     yoffset=0    xadvance=23     page=0  chnl=0 
char id=192   x=0     y=36     width=27     height=35     xoffset=-1     yoffset=0    xadvance=23     page=0  chnl=0 
char id=182   x=27     y=36     width=21     height=35     xoffset=0     yoffset=7    xadvance=19     page=0  chnl=0 
char id=167   x=48     y=36     width=18     height=35     xoffset=1     yoffset=7    xadvance=20     page=0  chnl=0 
char id=162   x=66     y=36     width=17     height=35     xoffset=2     yoffset=8    xadvance=20     page=0  chnl=0 
char id=125   x=83     y=36     width=13     height=35     xoffset=0     yoffset=7    xadvance=12     page=0  chnl=0 
char id=123   x=96     y=36     width=13     height=35     xoffset=1     yoffset=7    xadvance=12     page=0  chnl=0 
char id=106   x=109     y=36     width=11     height=35     xoffset=-2     yoffset=7    xadvance=9     page=0  chnl=0 
char id=93   x=120     y=36     width=9     height=35     xoffset=1     yoffset=7    xadvance=10     page=0  chnl=0 
char id=91   x=129     y=36     width=9     height=35     xoffset=2     yoffset=7    xadvance=10     page=0  chnl=0 
char id=41   x=138     y=36     width=10     height=35     xoffset=2     yoffset=7    xadvance=12     page=0  chnl=0 
char id=40   x=148     y=36     width=9     height=35     xoffset=2     yoffset=7    xadvance=12     page=0  chnl=0 
char id=255   x=157     y=36     width=19     height=33     xoffset=0     yoffset=9    xadvance=17     page=0  chnl=0 
char id=220   x=176     y=36     width=22     height=33     xoffset=3     yoffset=2    xadvance=26     page=0  chnl=0 
char id=214   x=198     y=36     width=26     height=33     xoffset=2     yoffset=2    xadvance=28     page=0  chnl=0 
char id=207   x=224     y=36     width=12     height=33     xoffset=0     yoffset=2    xadvance=9     page=0  chnl=0 
char id=203   x=236     y=36     width=21     height=33     xoffset=3     yoffset=2    xadvance=24     page=0  chnl=0 
char id=196   x=257     y=36     width=27     height=33     xoffset=-1     yoffset=2    xadvance=23     page=0  chnl=0 
char id=197   x=284     y=36     width=27     height=32     xoffset=-1     yoffset=3    xadvance=23     page=0  chnl=0 
char id=36   x=311     y=36     width=18     height=32     xoffset=1     yoffset=6    xadvance=20     page=0  chnl=0 
char id=216   x=329     y=36     width=27     height=30     xoffset=1     yoffset=7    xadvance=28     page=0  chnl=0 
char id=81   x=356     y=36     width=25     height=30     xoffset=2     yoffset=7    xadvance=28     page=0  chnl=0 
char id=190   x=381     y=36     width=31     height=29     xoffset=1     yoffset=7    xadvance=30     page=0  chnl=0 
char id=251   x=412     y=36     width=17     height=28     xoffset=2     yoffset=7    xadvance=19     page=0  chnl=0 
char id=250   x=429     y=36     width=17     height=28     xoffset=2     yoffset=7    xadvance=19     page=0  chnl=0 
char id=249   x=446     y=36     width=17     height=28     xoffset=2     yoffset=7    xadvance=19     page=0  chnl=0 
char id=245   x=463     y=36     width=18     height=28     xoffset=2     yoffset=7    xadvance=20     page=0  chnl=0 
char id=244   x=481     y=36     width=18     height=28     xoffset=2     yoffset=7    xadvance=20     page=0  chnl=0 
char id=243   x=0     y=71     width=18     height=28     xoffset=2     yoffset=7    xadvance=20     page=0  chnl=0 
char id=242   x=18     y=71     width=18     height=28     xoffset=2     yoffset=7    xadvance=20     page=0  chnl=0 
char id=241   x=36     y=71     width=17     height=28     xoffset=2     yoffset=7    xadvance=19     page=0  chnl=0 
char id=240   x=53     y=71     width=20     height=28     xoffset=1     yoffset=7    xadvance=20     page=0  chnl=0 
char id=238   x=73     y=71     width=14     height=28     xoffset=-1     yoffset=7    xadvance=9     page=0  chnl=0 
char id=237   x=87     y=71     width=7     height=28     xoffset=2     yoffset=7    xadvance=9     page=0  chnl=0 
char id=236   x=94     y=71     width=7     height=28     xoffset=1     yoffset=7    xadvance=9     page=0  chnl=0 
char id=234   x=101     y=71     width=18     height=28     xoffset=2     yoffset=7    xadvance=20     page=0  chnl=0 
char id=233   x=119     y=71     width=18     height=28     xoffset=2     yoffset=7    xadvance=20     page=0  chnl=0 
char id=232   x=137     y=71     width=18     height=28     xoffset=2     yoffset=7    xadvance=20     page=0  chnl=0 
char id=231   x=155     y=71     width=17     height=28     xoffset=1     yoffset=14    xadvance=18     page=0  chnl=0 
char id=229   x=172     y=71     width=18     height=28     xoffset=2     yoffset=7    xadvance=20     page=0  chnl=0 
char id=227   x=190     y=71     width=18     height=28     xoffset=2     yoffset=7    xadvance=20     page=0  chnl=0 
char id=226   x=208     y=71     width=18     height=28     xoffset=2     yoffset=7    xadvance=20     page=0  chnl=0 
char id=225   x=226     y=71     width=18     height=28     xoffset=2     yoffset=7    xadvance=20     page=0  chnl=0 
char id=224   x=244     y=71     width=18     height=28     xoffset=2     yoffset=7    xadvance=20     page=0  chnl=0 
char id=223   x=262     y=71     width=20     height=28     xoffset=3     yoffset=7    xadvance=22     page=0  chnl=0 
char id=222   x=282     y=71     width=21     height=28     xoffset=3     yoffset=7    xadvance=24     page=0  chnl=0 
char id=208   x=303     y=71     width=26     height=28     xoffset=0     yoffset=7    xadvance=26     page=0  chnl=0 
char id=198   x=329     y=71     width=37     height=28     xoffset=-1     yoffset=7    xadvance=36     page=0  chnl=0 
char id=191   x=366     y=71     width=17     height=28     xoffset=3     yoffset=14    xadvance=22     page=0  chnl=0 
char id=189   x=383     y=71     width=29     height=28     xoffset=2     yoffset=7    xadvance=30     page=0  chnl=0 
char id=188   x=412     y=71     width=30     height=28     xoffset=2     yoffset=7    xadvance=30     page=0  chnl=0 
char id=181   x=442     y=71     width=17     height=28     xoffset=3     yoffset=14    xadvance=21     page=0  chnl=0 
char id=174   x=459     y=71     width=28     height=28     xoffset=0     yoffset=7    xadvance=27     page=0  chnl=0 
char id=169   x=0     y=99     width=28     height=28     xoffset=0     yoffset=7    xadvance=27     page=0  chnl=0 
char id=165   x=28     y=99     width=20     height=28     xoffset=0     yoffset=7    xadvance=20     page=0  chnl=0 
char id=163   x=48     y=99     width=19     height=28     xoffset=0     yoffset=7    xadvance=20     page=0  chnl=0 
char id=161   x=67     y=99     width=5     height=28     xoffset=4     yoffset=14    xadvance=11     page=0  chnl=0 
char id=121   x=72     y=99     width=19     height=28     xoffset=0     yoffset=14    xadvance=17     page=0  chnl=0 
char id=113   x=91     y=99     width=18     height=28     xoffset=2     yoffset=14    xadvance=20     page=0  chnl=0 
char id=112   x=109     y=99     width=18     height=28     xoffset=2     yoffset=14    xadvance=20     page=0  chnl=0 
char id=108   x=127     y=99     width=5     height=28     xoffset=2     yoffset=7    xadvance=7     page=0  chnl=0 
char id=107   x=132     y=99     width=17     height=28     xoffset=3     yoffset=7    xadvance=19     page=0  chnl=0 
char id=105   x=149     y=99     width=5     height=28     xoffset=2     yoffset=7    xadvance=7     page=0  chnl=0 
char id=104   x=154     y=99     width=17     height=28     xoffset=2     yoffset=7    xadvance=19     page=0  chnl=0 
char id=103   x=171     y=99     width=18     height=28     xoffset=2     yoffset=14    xadvance=20     page=0  chnl=0 
char id=102   x=189     y=99     width=13     height=28     xoffset=0     yoffset=7    xadvance=10     page=0  chnl=0 
char id=100   x=202     y=99     width=18     height=28     xoffset=2     yoffset=7    xadvance=20     page=0  chnl=0 
char id=98   x=220     y=99     width=18     height=28     xoffset=2     yoffset=7    xadvance=20     page=0  chnl=0 
char id=92   x=238     y=99     width=11     height=28     xoffset=0     yoffset=7    xadvance=10     page=0  chnl=0 
char id=90   x=249     y=99     width=22     height=28     xoffset=1     yoffset=7    xadvance=22     page=0  chnl=0 
char id=89   x=271     y=99     width=24     height=28     xoffset=0     yoffset=7    xadvance=23     page=0  chnl=0 
char id=88   x=295     y=99     width=24     height=28     xoffset=0     yoffset=7    xadvance=23     page=0  chnl=0 
char id=87   x=319     y=99     width=36     height=28     xoffset=0     yoffset=7    xadvance=36     page=0  chnl=0 
char id=86   x=355     y=99     width=26     height=28     xoffset=0     yoffset=7    xadvance=24     page=0  chnl=0 
char id=85   x=381     y=99     width=22     height=28     xoffset=3     yoffset=7    xadvance=26     page=0  chnl=0 
char id=84   x=403     y=99     width=21     height=28     xoffset=1     yoffset=7    xadvance=21     page=0  chnl=0 
char id=83   x=424     y=99     width=22     height=28     xoffset=2     yoffset=7    xadvance=24     page=0  chnl=0 
char id=82   x=446     y=99     width=23     height=28     xoffset=3     yoffset=7    xadvance=26     page=0  chnl=0 
char id=80   x=469     y=99     width=21     height=28     xoffset=3     yoffset=7    xadvance=24     page=0  chnl=0 
char id=79   x=0     y=127     width=26     height=28     xoffset=2     yoffset=7    xadvance=28     page=0  chnl=0 
char id=78   x=26     y=127     width=22     height=28     xoffset=3     yoffset=7    xadvance=26     page=0  chnl=0 
char id=77   x=48     y=127     width=25     height=28     xoffset=3     yoffset=7    xadvance=29     page=0  chnl=0 
char id=76   x=73     y=127     width=18     height=28     xoffset=3     yoffset=7    xadvance=20     page=0  chnl=0 
char id=75   x=91     y=127     width=22     height=28     xoffset=3     yoffset=7    xadvance=24     page=0  chnl=0 
char id=74   x=113     y=127     width=16     height=28     xoffset=1     yoffset=7    xadvance=18     page=0  chnl=0 
char id=73   x=129     y=127     width=5     height=28     xoffset=3     yoffset=7    xadvance=9     page=0  chnl=0 
char id=72   x=134     y=127     width=22     height=28     xoffset=3     yoffset=7    xadvance=26     page=0  chnl=0 
char id=71   x=156     y=127     width=26     height=28     xoffset=2     yoffset=7    xadvance=28     page=0  chnl=0 
char id=70   x=182     y=127     width=19     height=28     xoffset=3     yoffset=7    xadvance=22     page=0  chnl=0 
char id=69   x=201     y=127     width=21     height=28     xoffset=3     yoffset=7    xadvance=24     page=0  chnl=0 
char id=68   x=222     y=127     width=23     height=28     xoffset=3     yoffset=7    xadvance=26     page=0  chnl=0 
char id=67   x=245     y=127     width=23     height=28     xoffset=2     yoffset=7    xadvance=26     page=0  chnl=0 
char id=66   x=268     y=127     width=21     height=28     xoffset=3     yoffset=7    xadvance=24     page=0  chnl=0 
char id=65   x=289     y=127     width=27     height=28     xoffset=-1     yoffset=7    xadvance=23     page=0  chnl=0 
char id=63   x=316     y=127     width=18     height=28     xoffset=2     yoffset=7    xadvance=20     page=0  chnl=0 
char id=56   x=334     y=127     width=18     height=28     xoffset=2     yoffset=7    xadvance=20     page=0  chnl=0 
char id=55   x=352     y=127     width=19     height=28     xoffset=1     yoffset=7    xadvance=20     page=0  chnl=0 
char id=54   x=371     y=127     width=19     height=28     xoffset=1     yoffset=7    xadvance=20     page=0  chnl=0 
char id=53   x=390     y=127     width=18     height=28     xoffset=2     yoffset=7    xadvance=20     page=0  chnl=0 
char id=52   x=408     y=127     width=19     height=28     xoffset=1     yoffset=7    xadvance=20     page=0  chnl=0 
char id=51   x=427     y=127     width=18     height=28     xoffset=2     yoffset=7    xadvance=20     page=0  chnl=0 
char id=49   x=445     y=127     width=11     height=28     xoffset=4     yoffset=7    xadvance=20     page=0  chnl=0 
char id=48   x=456     y=127     width=18     height=28     xoffset=2     yoffset=7    xadvance=20     page=0  chnl=0 
char id=47   x=474     y=127     width=11     height=28     xoffset=0     yoffset=7    xadvance=10     page=0  chnl=0 
char id=38   x=485     y=127     width=22     height=28     xoffset=2     yoffset=7    xadvance=24     page=0  chnl=0 
char id=37   x=0     y=155     width=29     height=28     xoffset=2     yoffset=7    xadvance=32     page=0  chnl=0 
char id=35   x=29     y=155     width=22     height=28     xoffset=0     yoffset=7    xadvance=20     page=0  chnl=0 
char id=33   x=51     y=155     width=5     height=28     xoffset=4     yoffset=7    xadvance=11     page=0  chnl=0 
char id=116   x=56     y=155     width=12     height=27     xoffset=0     yoffset=8    xadvance=10     page=0  chnl=0 
char id=59   x=68     y=155     width=5     height=27     xoffset=3     yoffset=14    xadvance=10     page=0  chnl=0 
char id=57   x=73     y=155     width=18     height=27     xoffset=2     yoffset=8    xadvance=20     page=0  chnl=0 
char id=50   x=91     y=155     width=19     height=27     xoffset=1     yoffset=8    xadvance=20     page=0  chnl=0 
char id=252   x=110     y=155     width=17     height=26     xoffset=2     yoffset=9    xadvance=19     page=0  chnl=0 
char id=246   x=127     y=155     width=18     height=26     xoffset=2     yoffset=9    xadvance=20     page=0  chnl=0 
char id=239   x=145     y=155     width=12     height=26     xoffset=0     yoffset=9    xadvance=9     page=0  chnl=0 
char id=235   x=157     y=155     width=18     height=26     xoffset=2     yoffset=9    xadvance=20     page=0  chnl=0 
char id=228   x=175     y=155     width=18     height=26     xoffset=2     yoffset=9    xadvance=20     page=0  chnl=0 
char id=127   x=193     y=155     width=20     height=25     xoffset=4     yoffset=10    xadvance=27     page=0  chnl=0 
char id=177   x=213     y=155     width=19     height=24     xoffset=1     yoffset=11    xadvance=20     page=0  chnl=0 
char id=248   x=232     y=155     width=20     height=23     xoffset=1     yoffset=13    xadvance=22     page=0  chnl=0 
char id=230   x=252     y=155     width=31     height=21     xoffset=1     yoffset=14    xadvance=32     page=0  chnl=0 
char id=122   x=283     y=155     width=18     height=21     xoffset=0     yoffset=14    xadvance=17     page=0  chnl=0 
char id=120   x=301     y=155     width=19     height=21     xoffset=0     yoffset=14    xadvance=16     page=0  chnl=0 
char id=119   x=320     y=155     width=28     height=21     xoffset=-1     yoffset=14    xadvance=25     page=0  chnl=0 
char id=118   x=348     y=155     width=18     height=21     xoffset=0     yoffset=14    xadvance=17     page=0  chnl=0 
char id=117   x=366     y=155     width=17     height=21     xoffset=2     yoffset=14    xadvance=19     page=0  chnl=0 
char id=115   x=383     y=155     width=18     height=21     xoffset=1     yoffset=14    xadvance=18     page=0  chnl=0 
char id=114   x=401     y=155     width=11     height=21     xoffset=2     yoffset=14    xadvance=12     page=0  chnl=0 
char id=110   x=412     y=155     width=17     height=21     xoffset=2     yoffset=14    xadvance=19     page=0  chnl=0 
char id=109   x=429     y=155     width=27     height=21     xoffset=3     yoffset=14    xadvance=31     page=0  chnl=0 
char id=101   x=456     y=155     width=18     height=21     xoffset=2     yoffset=14    xadvance=20     page=0  chnl=0 
char id=99   x=474     y=155     width=17     height=21     xoffset=1     yoffset=14    xadvance=18     page=0  chnl=0 
char id=97   x=491     y=155     width=18     height=21     xoffset=2     yoffset=14    xadvance=20     page=0  chnl=0 
char id=58   x=0     y=183     width=5     height=21     xoffset=3     yoffset=14    xadvance=10     page=0  chnl=0 
char id=111   x=5     y=183     width=18     height=20     xoffset=2     yoffset=15    xadvance=20     page=0  chnl=0 
char id=43   x=23     y=183     width=19     height=19     xoffset=2     yoffset=12    xadvance=21     page=0  chnl=0 
char id=187   x=42     y=183     width=17     height=18     xoffset=2     yoffset=16    xadvance=20     page=0  chnl=0 
char id=171   x=59     y=183     width=17     height=18     xoffset=2     yoffset=16    xadvance=20     page=0  chnl=0 
char id=164   x=76     y=183     width=20     height=18     xoffset=1     yoffset=14    xadvance=20     page=0  chnl=0 
char id=62   x=96     y=183     width=19     height=18     xoffset=2     yoffset=13    xadvance=21     page=0  chnl=0 
char id=60   x=115     y=183     width=19     height=18     xoffset=2     yoffset=13    xadvance=21     page=0  chnl=0 
char id=215   x=134     y=183     width=16     height=16     xoffset=3     yoffset=14    xadvance=21     page=0  chnl=0 
char id=94   x=150     y=183     width=16     height=16     xoffset=1     yoffset=7    xadvance=17     page=0  chnl=0 
char id=247   x=166     y=183     width=19     height=15     xoffset=2     yoffset=14    xadvance=20     page=0  chnl=0 
char id=186   x=185     y=183     width=13     height=15     xoffset=1     yoffset=7    xadvance=13     page=0  chnl=0 
char id=185   x=198     y=183     width=9     height=15     xoffset=2     yoffset=7    xadvance=12     page=0  chnl=0 
char id=179   x=207     y=183     width=13     height=15     xoffset=0     yoffset=7    xadvance=12     page=0  chnl=0 
char id=178   x=220     y=183     width=13     height=15     xoffset=0     yoffset=7    xadvance=12     page=0  chnl=0 
char id=170   x=233     y=183     width=12     height=15     xoffset=1     yoffset=7    xadvance=13     page=0  chnl=0 
char id=61   x=245     y=183     width=19     height=13     xoffset=2     yoffset=15    xadvance=21     page=0  chnl=0 
char id=42   x=264     y=183     width=14     height=13     xoffset=1     yoffset=7    xadvance=14     page=0  chnl=0 
char id=172   x=278     y=183     width=19     height=12     xoffset=2     yoffset=16    xadvance=21     page=0  chnl=0 
char id=176   x=297     y=183     width=11     height=11     xoffset=2     yoffset=8    xadvance=14     page=0  chnl=0 
char id=44   x=308     y=183     width=5     height=11     xoffset=3     yoffset=30    xadvance=10     page=0  chnl=0 
char id=39   x=313     y=183     width=5     height=11     xoffset=2     yoffset=7    xadvance=7     page=0  chnl=0 
char id=34   x=318     y=183     width=12     height=11     xoffset=1     yoffset=7    xadvance=13     page=0  chnl=0 
char id=184   x=330     y=183     width=9     height=9     xoffset=2     yoffset=33    xadvance=12     page=0  chnl=0 
char id=126   x=339     y=183     width=20     height=8     xoffset=2     yoffset=17    xadvance=21     page=0  chnl=0 
char id=180   x=359     y=183     width=7     height=7     xoffset=4     yoffset=7    xadvance=12     page=0  chnl=0 
char id=96   x=366     y=183     width=7     height=7     xoffset=1     yoffset=7    xadvance=12     page=0  chnl=0 
char id=183   x=373     y=183     width=5     height=5     xoffset=4     yoffset=19    xadvance=12     page=0  chnl=0 
char id=175   x=378     y=183     width=23     height=5     xoffset=-1     yoffset=2    xadvance=20     page=0  chnl=0 
char id=168   x=401     y=183     width=11     height=5     xoffset=1     yoffset=7    xadvance=12     page=0  chnl=0 
char id=95   x=412     y=183     width=23     height=5     xoffset=-1     yoffset=37    xadvance=20     page=0  chnl=0 
char id=46   x=435     y=183     width=5     height=5     xoffset=3     yoffset=30    xadvance=10     page=0  chnl=0 
char id=45   x=440     y=183     width=12     height=5     xoffset=1     yoffset=22    xadvance=12     page=0  chnl=0 
